Drake Graph
…
drake::drake_history()

## # A tibble: 96 x 9
##    target  current built   exists hash   command        seed runtime output_file
##    <chr>   <lgl>   <chr>   <lgl>  <chr>  <chr>         <int>   <dbl> <chr>      
##  1 coded_ TRUE    2020-0 TRUE   a4452 "read_csv(\ 1.77e9  0.015  <NA>       
##  2 coded_ TRUE    2020-0 TRUE   a4452 "read_csv(f 1.77e9  0.0160 <NA>       
##  3 coded_ TRUE    2020-0 TRUE   a4452 "read_csv(f 1.77e9  0.0170 <NA>       
##  4 coded_ TRUE    2020-0 TRUE   a4452 "read_csv(f 1.77e9  0.054  <NA>       
##  5 descri TRUE    2020-0 TRUE   629ad "create_des 6.73e8  0.160  <NA>       
##  6 descri TRUE    2020-0 TRUE   629ad "create_des 6.73e8  0.153  <NA>       
##  7 descri TRUE    2020-0 TRUE   629ad "create_des 6.73e8  0.134  <NA>       
##  8 descri TRUE    2020-0 TRUE   111a0 "rmarkdown: 1.53e9  0.713  docs/descr
##  9 descri TRUE    2020-0 TRUE   111a0 "rmarkdown: 1.53e9  0.387  docs/descr
## 10 drake_ TRUE    2020-0 TRUE   9e1d7 "rmarkdown: 1.65e9  0.491  docs/drake
## #  with 86 more rows
